Country/Region,2018,Population
Brazil,90.0,"211,715,973"
China,99.0,"1,394,015,977"
Colombia,89.0,"49,084,841"
India,92.0,"1,326,093,247"
Japan,99.0,"125,507,472"
Nigeria,53.0,"214,028,302"
Philippines (the),75.0,"109,180,815"
Viet Nam,95.0,"98,721,275"
